dump.vcd
$date
	Thu Dec 26 00:18:03 2024
$end

$version
	Synopsys VCS version S-2021.09-SP1_Full64
$end

$timescale
	1ns
$end

$comment Csum: 1 a43bd85a56bd2066 $end


$scope module testbench_top $end
$var reg 1 ! clk $end
$var reg 1 " rst $end

$scope module vif $end
$var reg 1 # clk $end
$var reg 1 $ enable $end
$var reg 1 % rd_wr $end
$var reg 1 & rst $end
$var reg 3 ' addr [2:0] $end
$var reg 8 ( wr_data [7:0] $end
$var reg 8 ) rd_data [7:0] $end
$upscope $end


$scope module DUT $end
$var reg 8 * rd_data_next [7:0] $end
$var integer 32 + i $end
$upscope $end

$upscope $end

$enddefinitions $end

#0
$dumpvars
0!
0"
b00000000000000000000000000001000 +
b00000000 *
b00000000 )
b00000000 (
b000 '
0#
0$
0%
1&
$end
#5
1!
1#
0&
#10
0!
0#
#15
1!
1#
b010 '
1$
1%
#20
0!
0#
#25
1!
1#
b11111111 *
0$
#30
0!
0#
#35
1!
1#
b11111111 )
#40
0!
0#
#45
1!
1#
b000 '
1$
0%
b01101101 (
#50
0!
0#
#55
1!
1#
0$
#60
0!
0#
#65
1!
1#
1$
1%
#70
0!
0#
#75
1!
1#
b01101101 *
0$
#80
0!
0#
#85
1!
1#
b01101101 )
#90
0!
0#
#95
1!
1#
b011 '
1$
#100
0!
0#
#105
1!
1#
b11111111 *
0$
#110
0!
0#
#115
1!
1#
b11111111 )
#120
0!
0#
#125
1!
1#
b010 '
1$
#130
0!
0#
#135
1!
1#
0$
#140
0!
0#
#145
1!
1#
#150
0!
0#
#155
1!
1#
b100 '
1&
0%
b000 '
b00000000000000000000000000000000 +
b00000000000000000000000000000001 +
b00000000000000000000000000000010 +
b00000000000000000000000000000011 +
b00000000000000000000000000000100 +
b00000000000000000000000000000101 +
b00000000000000000000000000000110 +
b00000000000000000000000000000111 +
b00000000000000000000000000001000 +
b00000000 *
b00000000 )
#160
0!
0#
#165
1!
1#
0&
1%
#170
0!
0#
#175
1!
1#
#180
0!
0#
#185
1!
1#
#190
0!
0#
#195
1!
1#
b010 '
1$
#200
0!
0#
#205
1!
1#
b11111111 *
0$
#210
0!
0#
#215
1!
1#
b11111111 )
#220
0!
0#
#225
1!
1#
b001 '
1$
0%
b01010111 (
#230
0!
0#
#235
1!
1#
0$
#240
0!
0#
#245
1!
1#
b101 '
b11001010 (
#250
0!
0#
#255
1!
1#
#260
0!
0#
#265
1!
1#
b011 '
1$
1%
#270
0!
0#
#275
1!
1#
0$
#280
0!
0#
#285
1!
1#
#290
0!
0#
#295
1!
1#
b010 '
1$
0%
b01100100 (
#300
0!
0#
#305
1!
1#
0$
#310
0!
0#
#315
1!
1#
b101 '
1$
1%
#320
0!
0#
#325
1!
1#
0$
#330
0!
0#
#335
1!
1#
#340
0!
0#
#345
1!
1#
b000 '
1$
0%
b00001011 (
#350
0!
0#
#355
1!
1#
0$
#360
0!
0#
#365
1!
1#
b111 '
1&
b000 '
b00000000000000000000000000000000 +
b00000000000000000000000000000001 +
b00000000000000000000000000000010 +
b00000000000000000000000000000011 +
b00000000000000000000000000000100 +
b00000000000000000000000000000101 +
b00000000000000000000000000000110 +
b00000000000000000000000000000111 +
b00000000000000000000000000001000 +
b00000000 *
b00000000 )
#370
0!
0#
#375
1!
1#
0&
1$
b00101100 (
#380
0!
0#
#385
1!
1#
0$
#390
0!
0#
#395
1!
1#
b110 '
1%
#400
0!
0#
#405
1!
1#
#410
0!
0#
#415
1!
1#
#420
0!
0#
#425
1!
1#
b011 '
1$
0%
b11111111 (
#430
0!
0#
#435
1!
1#
0$
#440
0!
0#
#445
1!
1#
b111 '
1%
#450
0!
0#
#455
1!
1#
#460
0!
0#
#465
1!
1#
#470
0!
0#
#475
1!
1#
b110 '
1&
0%
b000 '
b00000000000000000000000000000000 +
b00000000000000000000000000000001 +
b00000000000000000000000000000010 +
b00000000000000000000000000000011 +
b00000000000000000000000000000100 +
b00000000000000000000000000000101 +
b00000000000000000000000000000110 +
b00000000000000000000000000000111 +
b00000000000000000000000000001000 +
#480
0!
0#
#485
1!
1#
0&
1$
1%
#490
0!
0#
#495
1!
1#
b11111111 *
0$
#500
0!
0#
#505
1!
1#
b11111111 )
#510
0!
0#
#515
1!
1#
b111 '
0%
b01001011 (
#520
0!
0#
#525
1!
1#
#530
0!
0#
#535
1!
1#
1$
1%
#540
0!
0#
#545
1!
1#
0$
#550
0!
0#
#555
1!
1#
#560
0!
0#
#565
1!
1#
b101 '
#570
0!
0#
#575
1!
1#
#580
0!
0#
#585
1!
1#
#590
0!
0#
#595
1!
1#
1$
0%
b11011110 (
#600
0!
0#
#605
1!
1#
0$
#610
0!
0#
#615
1!
1#
b110 '
b00000100 (
#620
0!
0#
#625
1!
1#
#630
0!
0#
#635
1!
1#
b011 '
1&
b000 '
b00000000000000000000000000000000 +
b00000000000000000000000000000001 +
b00000000000000000000000000000010 +
b00000000000000000000000000000011 +
b00000000000000000000000000000100 +
b00000000000000000000000000000101 +
b00000000000000000000000000000110 +
b00000000000000000000000000000111 +
b00000000000000000000000000001000 +
b00000000 *
b00000000 )
#640
0!
0#
#645
1!
1#
0&
1$
b01011010 (
#650
0!
0#
#655
1!
1#
0$
#660
0!
0#
#665
1!
1#
b110 '
b00011000 (
#670
0!
0#
#675
1!
1#
#680
0!
0#
#685
1!
1#
b100 '
1$
1%
#690
0!
0#
#695
1!
1#
b11111111 *
0$
#700
0!
0#
#705
1!
1#
b11111111 )
#710
0!
0#
#715
1!
1#
b010 '
0%
b01111100 (
#720
0!
0#
#725
1!
1#
#730
0!
0#
#735
1!
1#
b000 '
1$
1%
#740
0!
0#
#745
1!
1#
b01011010 *
0$
#750
0!
0#
#755
1!
1#
b01011010 )
#760
0!
0#
#765
1!
1#
b100 '
1&
0%
b000 '
b00000000000000000000000000000000 +
b00000000000000000000000000000001 +
b00000000000000000000000000000010 +
b00000000000000000000000000000011 +
b00000000000000000000000000000100 +
b00000000000000000000000000000101 +
b00000000000000000000000000000110 +
b00000000000000000000000000000111 +
b00000000000000000000000000001000 +
b00000000 *
b00000000 )
#770
0!
0#
#775
1!
1#
0&
1$
1%
#780
0!
0#
#785
1!
1#
b11111111 *
0$
#790
0!
0#
#795
1!
1#
b11111111 )
#800
0!
0#
#805
1!
1#
b011 '
1$
0%
b10001011 (
#810
0!
0#
#815
1!
1#
0$
#820
0!
0#
#825
1!
1#
b110 '
1&
b000 '
b00000000000000000000000000000000 +
b00000000000000000000000000000001 +
b00000000000000000000000000000010 +
b00000000000000000000000000000011 +
b00000000000000000000000000000100 +
b00000000000000000000000000000101 +
b00000000000000000000000000000110 +
b00000000000000000000000000000111 +
b00000000000000000000000000001000 +
b00000000 *
b00000000 )
#830
0!
0#
#835
1!
1#
0&
1$
b11000101 (
#840
0!
0#
#845
1!
1#
0$
#850
0!
0#
#855
1!
1#
b100 '
1$
1%
#860
0!
0#
#865
1!
1#
b11111111 *
0$
#870
0!
0#
#875
1!
1#
b11111111 )
#880
0!
0#
#885
1!
1#
b101 '
1$
0%
b00100011 (
#890
0!
0#
#895
1!
1#
0$
#900
0!
0#
#905
1!
1#
b000 '
1$
b11011011 (
#910
0!
0#
#915
1!
1#
0$
#920
0!
0#
#925
1!
1#
b100 '
1$
b01010111 (
#930
0!
0#
#935
1!
1#
0$
#940
0!
0#
#945
1!
1#
b010 '
1$
1%
#950
0!
0#
#955
1!
1#
0$
#960
0!
0#
#965
1!
1#
#970
0!
0#
#975
1!
1#
b111 '
1$
0%
b00100001 (
#980
0!
0#
#985
1!
1#
0$
#990
0!
0#
#995
1!
1#
b010 '
1$
1%
#1000
0!
0#
#1005
1!
1#
0$
#1010
0!
0#
#1015
1!
1#
#1020
0!
0#
#1025
1!
1#
b110 '
1$
#1030
0!
0#
#1035
1!
1#
0$
#1040
0!
0#
#1045
1!
1#
#1050
0!
0#
#1055
1!
1#
b000 '
1$
0%
b11110100 (
#1060
0!
0#
#1065
1!
1#
0$
#1070
0!
0#
#1075
1!
1#
b010 '
1$
b01010100 (
#1080
0!
0#
#1085
1!
1#
0$
#1090
0!
0#
#1095
1!
1#
b011 '
1&
b000 '
b00000000000000000000000000000000 +
b00000000000000000000000000000001 +
b00000000000000000000000000000010 +
b00000000000000000000000000000011 +
b00000000000000000000000000000100 +
b00000000000000000000000000000101 +
b00000000000000000000000000000110 +
b00000000000000000000000000000111 +
b00000000000000000000000000001000 +
b00000000 *
b00000000 )
#1100
0!
0#
#1105
1!
1#
0&
1$
1%
#1110
0!
0#
#1115
1!
1#
b11111111 *
0$
#1120
0!
0#
#1125
1!
1#
b11111111 )
#1130
0!
0#
#1135
1!
1#
1$
#1140
0!
0#
#1145
1!
1#
0$
#1150
0!
0#
#1155
1!
1#
#1160
0!
0#
#1165
1!
1#
b101 '
1$
#1170
0!
0#
#1175
1!
1#
0$
#1180
0!
0#
#1185
1!
1#
#1190
0!
0#
#1195
1!
1#
#1200
0!
0#
#1205
1!
1#
#1210
0!
0#
#1215
1!
1#
#1220
0!
0#
#1225
1!
1#
b010 '
1$
#1230
0!
0#
#1235
1!
1#
0$
#1240
0!
0#
#1245
1!
1#
#1250
0!
0#
#1255
1!
1#
b100 '
1&
0%
b000 '
b00000000000000000000000000000000 +
b00000000000000000000000000000001 +
b00000000000000000000000000000010 +
b00000000000000000000000000000011 +
b00000000000000000000000000000100 +
b00000000000000000000000000000101 +
b00000000000000000000000000000110 +
b00000000000000000000000000000111 +
b00000000000000000000000000001000 +
b00000000 *
b00000000 )
#1260
0!
0#
#1265
1!
1#
0&
1$
b00011001 (
#1270
0!
0#
#1275
1!
1#
0$
#1280
0!
0#
#1285
1!
1#
b101 '
b11001001 (
#1290
0!
0#
#1295
1!
1#
#1300
0!
0#
#1305
1!
1#
b011 '
1$
b01100000 (
#1310
0!
0#
#1315
1!
1#
0$
#1320
0!
0#
#1325
1!
1#
b110 '
1%
#1330
0!
0#
#1335
1!
1#
#1340
0!
0#
#1345
1!
1#
#1350
0!
0#
#1355
1!
1#
b101 '
1$
0%
b11111110 (
#1360
0!
0#
#1365
1!
1#
0$
#1370
0!
0#
#1375
1!
1#
b111 '
1$
1%
#1380
0!
0#
#1385
1!
1#
b11111111 *
0$
#1390
0!
0#
#1395
1!
1#
b11111111 )
#1400
0!
0#
#1405
1!
1#
b000 '
1$
#1410
0!
0#
#1415
1!
1#
b00011001 *
0$
#1420
0!
0#
#1425
1!
1#
b00011001 )
#1430
0!
0#
#1435
1!
1#
b111 '
1$
0%
b11101101 (
#1440
0!
0#
#1445
1!
1#
0$
#1450
0!
0#
#1455
1!
1#
b000 '
1$
1%
#1460
0!
0#
#1465
1!
1#
0$
#1470
0!
0#
#1475
1!
1#
#1480
0!
0#
#1485
1!
1#
b001 '
1$
#1490
0!
0#
#1495
1!
1#
b11111111 *
0$
#1500
0!
0#
#1505
1!
1#
b11111111 )
#1510
0!
0#
#1515
1!
1#
b010 '
1$
0%
b01100111 (
#1520
0!
0#
#1525
1!
1#
0$
#1530
0!
0#
#1535
1!
1#
b111 '
1&
b000 '
b00000000000000000000000000000000 +
b00000000000000000000000000000001 +
b00000000000000000000000000000010 +
b00000000000000000000000000000011 +
b00000000000000000000000000000100 +
b00000000000000000000000000000101 +
b00000000000000000000000000000110 +
b00000000000000000000000000000111 +
b00000000000000000000000000001000 +
b00000000 *
b00000000 )
#1540
0!
0#
#1545
1!
1#
0&
1$
b11110101 (
#1550
0!
0#
#1555
1!
1#
0$
#1560
0!
0#
#1565
1!
1#
b100 '
b00000010 (
#1570
0!
0#
#1575
1!
1#
#1580
0!
0#
#1585
1!
1#
b110 '
b01110110 (
#1590
0!
0#
#1595
1!
1#
#1600
0!
0#
#1605
1!
1#
b100 '
1$
1%
#1610
0!
0#
#1615
1!
1#
b11111111 *
0$
#1620
0!
0#
#1625
1!
1#
b11111111 )
#1630
0!
0#
#1635
1!
1#
1$
#1640
0!
0#
#1645
1!
1#
0$
#1650
0!
0#
#1655
1!
1#
#1660
0!
0#
#1665
1!
1#
b110 '
#1670
0!
0#
#1675
1!
1#
#1680
0!
0#
#1685
1!
1#
#1690
0!
0#
#1695
1!
1#
b010 '
1$
#1700
0!
0#
#1705
1!
1#
0$
#1710
0!
0#
#1715
1!
1#
#1720
0!
0#
#1725
1!
1#
b001 '
#1730
0!
0#
#1735
1!
1#
#1740
0!
0#
#1745
1!
1#
#1750
0!
0#
#1755
1!
1#
1$
#1760
0!
0#
#1765
1!
1#
0$
#1770
0!
0#
#1775
1!
1#
#1780
0!
0#
#1785
1!
1#
b011 '
1$
#1790
0!
0#
#1795
1!
1#
0$
#1800
0!
0#
#1805
1!
1#
#1810
0!
0#
#1815
1!
1#
b000 '
1&
0%
b00000000000000000000000000000000 +
b00000000000000000000000000000001 +
b00000000000000000000000000000010 +
b00000000000000000000000000000011 +
b00000000000000000000000000000100 +
b00000000000000000000000000000101 +
b00000000000000000000000000000110 +
b00000000000000000000000000000111 +
b00000000000000000000000000001000 +
b00000000 *
b00000000 )
#1820
0!
0#
#1825
1!
1#
0&
1%
#1830
0!
0#
#1835
1!
1#
#1840
0!
0#
#1845
1!
1#
#1850
0!
0#
#1855
1!
1#
b001 '
1$
#1860
0!
0#
#1865
1!
1#
b11111111 *
0$
#1870
0!
0#
#1875
1!
1#
b11111111 )
#1880
0!
0#
#1885
1!
1#
b011 '
#1890
0!
0#
#1895
1!
1#
#1900
0!
0#
#1905
1!
1#
#1910
0!
0#
#1915
1!
1#
b111 '
0%
b00000110 (
#1920
0!
0#
#1925
1!
1#
#1930
0!
0#
#1935
1!
1#
1%
#1940
0!
0#
#1945
1!
1#
#1950
0!
0#
#1955
1!
1#
#1960
0!
0#
#1965
1!
1#
b010 '
1$
0%
b10110110 (
#1970
0!
0#
#1975
1!
1#
0$
#1980
0!
0#
#1985
1!
1#
b101 '
1$
b11010100 (
#1990
0!
0#
#1995
1!
1#
0$
#2000
0!
0#
#2005
1!
1#
b000 '
1&
b00000000000000000000000000000000 +
b00000000000000000000000000000001 +
b00000000000000000000000000000010 +
b00000000000000000000000000000011 +
b00000000000000000000000000000100 +
b00000000000000000000000000000101 +
b00000000000000000000000000000110 +
b00000000000000000000000000000111 +
b00000000000000000000000000001000 +
b00000000 *
b00000000 )
#2010
0!
0#
#2015
1!
1#
0&
1$
1%
#2020
0!
0#
#2025
1!
1#
b11111111 *
0$
#2030
0!
0#
#2035
1!
1#
b11111111 )
#2040
0!
0#
#2045
1!
1#
b101 '
1$
0%
b00011111 (
#2050
0!
0#
#2055
1!
1#
0$
#2060
0!
0#
#2065
1!
1#
b011 '
1&
b000 '
b00000000000000000000000000000000 +
b00000000000000000000000000000001 +
b00000000000000000000000000000010 +
b00000000000000000000000000000011 +
b00000000000000000000000000000100 +
b00000000000000000000000000000101 +
b00000000000000000000000000000110 +
b00000000000000000000000000000111 +
b00000000000000000000000000001000 +
b00000000 *
b00000000 )
#2070
0!
0#
#2075
1!
1#
0&
1$
1%
#2080
0!
0#
#2085
1!
1#
b11111111 *
0$
#2090
0!
0#
#2095
1!
1#
b11111111 )
#2100
0!
0#
#2105
1!
1#
b101 '
1$
0%
b10010001 (
#2110
0!
0#
#2115
1!
1#
0$
#2120
0!
0#
#2125
1!
1#
b100 '
1$
b00101111 (
#2130
0!
0#
#2135
1!
1#
0$
#2140
0!
0#
#2145
1!
1#
b011 '
1$
1%
#2150
0!
0#
#2155
1!
1#
0$
#2160
0!
0#
#2165
1!
1#
#2170
0!
0#
#2175
1!
1#
b010 '
#2180
0!
0#
#2185
1!
1#
#2190
0!
0#
#2195
1!
1#
#2200
0!
0#
#2205
1!
1#
b101 '
1$
0%
b00100001 (
#2210
0!
0#
#2215
1!
1#
0$
#2220
0!
0#
#2225
1!
1#
b000 '
1$
b00111010 (
#2230
0!
0#
#2235
1!
1#
0$
#2240
0!
0#
#2245
1!
1#
b101 '
1$
b10111010 (
#2250
0!
0#
#2255
1!
1#
0$
#2260
0!
0#
#2265
1!
1#
b011 '
1&
b000 '
b00000000000000000000000000000000 +
b00000000000000000000000000000001 +
b00000000000000000000000000000010 +
b00000000000000000000000000000011 +
b00000000000000000000000000000100 +
b00000000000000000000000000000101 +
b00000000000000000000000000000110 +
b00000000000000000000000000000111 +
b00000000000000000000000000001000 +
b00000000 *
b00000000 )
#2270
0!
0#
#2275
1!
1#
0&
b11000001 (
#2280
0!
0#
#2285
1!
1#
#2290
0!
0#
#2295
1!
1#
b100 '
1$
1%
#2300
0!
0#
#2305
1!
1#
b11111111 *
0$
#2310
0!
0#
#2315
1!
1#
b11111111 )
#2320
0!
0#
#2325
1!
1#
b111 '
1$
0%
b01101010 (
#2330
0!
0#
#2335
1!
1#
0$
#2340
0!
0#
#2345
1!
1#
b10001010 (
#2350
0!
0#
#2355
1!
1#
#2360
0!
0#
#2365
1!
1#
b011 '
1$
b01001001 (
#2370
0!
0#
#2375
1!
1#
0$
#2380
0!
0#
#2385
1!
1#
b111 '
1$
b01110011 (
#2390
0!
0#
#2395
1!
1#
0$
#2400
0!
0#
#2405
1!
1#
b101 '
1&
b000 '
b00000000000000000000000000000000 +
b00000000000000000000000000000001 +
b00000000000000000000000000000010 +
b00000000000000000000000000000011 +
b00000000000000000000000000000100 +
b00000000000000000000000000000101 +
b00000000000000000000000000000110 +
b00000000000000000000000000000111 +
b00000000000000000000000000001000 +
b00000000 *
b00000000 )
#2410
0!
0#
#2415
1!
1#
0&
1$
b00111100 (
#2420
0!
0#
#2425
1!
1#
0$
#2430
0!
0#
#2435
1!
1#
b101 '
1$
b01101010 (
#2440
0!
0#
#2445
1!
1#
0$
#2450
0!
0#
#2455
1!
1#
b010 '
1&
b000 '
b00000000000000000000000000000000 +
b00000000000000000000000000000001 +
b00000000000000000000000000000010 +
b00000000000000000000000000000011 +
b00000000000000000000000000000100 +
b00000000000000000000000000000101 +
b00000000000000000000000000000110 +
b00000000000000000000000000000111 +
b00000000000000000000000000001000 +
#2460
0!
0#
#2465
1!
1#
0&
b11110110 (
#2470
0!
0#
#2475
1!
1#
#2480
0!
0#
#2485
1!
1#
b001 '
1&
b000 '
b00000000000000000000000000000000 +
b00000000000000000000000000000001 +
b00000000000000000000000000000010 +
b00000000000000000000000000000011 +
b00000000000000000000000000000100 +
b00000000000000000000000000000101 +
b00000000000000000000000000000110 +
b00000000000000000000000000000111 +
b00000000000000000000000000001000 +
#2490
0!
0#
#2495
1!
1#
0&
1$
1%
#2500
0!
0#
#2505
1!
1#
b11111111 *
0$
#2510
0!
0#
#2515
1!
1#
b11111111 )
#2520
0!
0#
#2525
1!
1#
b100 '
1$
#2530
0!
0#
#2535
1!
1#
0$
#2540
0!
0#
#2545
1!
1#
#2550
0!
0#
#2555
1!
1#
b010 '
0%
b11101010 (
#2560
0!
0#
#2565
1!
1#
#2570
0!
0#
#2575
1!
1#
1$
b01010011 (
#2580
0!
0#
#2585
1!
1#
0$
#2590
0!
0#
#2595
1!
1#
1%
#2600
0!
0#
#2605
1!
1#
#2610
0!
0#
#2615
1!
1#
#2620
0!
0#
#2625
1!
1#
b001 '
1&
0%
b000 '
b00000000000000000000000000000000 +
b00000000000000000000000000000001 +
b00000000000000000000000000000010 +
b00000000000000000000000000000011 +
b00000000000000000000000000000100 +
b00000000000000000000000000000101 +
b00000000000000000000000000000110 +
b00000000000000000000000000000111 +
b00000000000000000000000000001000 +
b00000000 *
b00000000 )
#2630
0!
0#
#2635
1!
1#
0&
1$
b10000111 (
#2640
0!
0#
#2645
1!
1#
0$
#2650
0!
0#
#2655
1!
1#
1$
1%
#2660
0!
0#
#2665
1!
1#
b10000111 *
0$
#2670
0!
0#
#2675
1!
1#
b10000111 )
#2680
0!
0#
#2685
1!
1#
1$
0%
b11111110 (
#2690
0!
0#
#2695
1!
1#
0$
#2700
0!
0#
#2705
1!
1#
b101 '
1%
#2710
0!
0#
#2715
1!
1#
#2720
0!
0#
#2725
1!
1#
#2730
0!
0#
#2735
1!
1#
b010 '
0%
b11011000 (
#2740
0!
0#
#2745
1!
1#
#2750
0!
0#
#2755
1!
1#
b001 '
1&
b000 '
b00000000000000000000000000000000 +
b00000000000000000000000000000001 +
b00000000000000000000000000000010 +
b00000000000000000000000000000011 +
b00000000000000000000000000000100 +
b00000000000000000000000000000101 +
b00000000000000000000000000000110 +
b00000000000000000000000000000111 +
b00000000000000000000000000001000 +
b00000000 *
b00000000 )
#2760
0!
0#
#2765
1!
1#
0&
1$
1%
#2770
0!
0#
#2775
1!
1#
b11111111 *
0$
#2780
0!
0#
#2785
1!
1#
b11111111 )
#2790
0!
0#
#2795
1!
1#
b011 '
1$
#2800
0!
0#
#2805
1!
1#
0$
#2810
0!
0#
#2815
1!
1#
#2820
0!
0#
#2825
1!
1#
b010 '
1$
#2830
0!
0#
#2835
1!
1#
0$
#2840
0!
0#
#2845
1!
1#
#2850
0!
0#
#2855
1!
1#
b000 '
1&
0%
b00000000000000000000000000000000 +
b00000000000000000000000000000001 +
b00000000000000000000000000000010 +
b00000000000000000000000000000011 +
b00000000000000000000000000000100 +
b00000000000000000000000000000101 +
b00000000000000000000000000000110 +
b00000000000000000000000000000111 +
b00000000000000000000000000001000 +
b00000000 *
b00000000 )
#2860
0!
0#
#2865
1!
1#
0&
1$
b10000001 (
#2870
0!
0#
#2875
1!
1#
0$
#2880
0!
0#
#2885
1!
1#
b110 '
1$
1%
#2890
0!
0#
#2895
1!
1#
b11111111 *
0$
#2900
0!
0#
#2905
1!
1#
b11111111 )
#2910
0!
0#
#2915
1!
1#
b111 '
1$
#2920
0!
0#
#2925
1!
1#
0$
#2930
0!
0#
#2935
1!
1#
#2940
0!
0#
#2945
1!
1#
b110 '
1$
#2950
0!
0#
#2955
1!
1#
0$
#2960
0!
0#
#2965
1!
1#
#2970
0!
0#
#2975
1!
1#
b011 '
1&
0%
b000 '
b00000000000000000000000000000000 +
b00000000000000000000000000000001 +
b00000000000000000000000000000010 +
b00000000000000000000000000000011 +
b00000000000000000000000000000100 +
b00000000000000000000000000000101 +
b00000000000000000000000000000110 +
b00000000000000000000000000000111 +
b00000000000000000000000000001000 +
b00000000 *
b00000000 )
#2980
0!
0#
#2985
1!
1#
0&
1$
1%
#2990
0!
0#
#2995
1!
1#
b11111111 *
0$
#3000
0!
0#
#3005
1!
1#
b11111111 )
#3010
0!
0#
#3015
1!
1#
b110 '
1&
0%
b000 '
b00000000000000000000000000000000 +
b00000000000000000000000000000001 +
b00000000000000000000000000000010 +
b00000000000000000000000000000011 +
b00000000000000000000000000000100 +
b00000000000000000000000000000101 +
b00000000000000000000000000000110 +
b00000000000000000000000000000111 +
b00000000000000000000000000001000 +
b00000000 *
b00000000 )
#3020
0!
0#
#3025
1!
1#
0&
1$
b01111001 (
#3030
0!
0#
#3035
1!
1#
0$
#3040
0!
0#
#3045
1!
1#
b010 '
1%
#3050
0!
0#
#3055
1!
1#
#3060
0!
0#
#3065
1!
1#
#3070
0!
0#
#3075
1!
1#
b000 '
1$
0%
b01101111 (
#3080
0!
0#
#3085
1!
1#
0$
#3090
0!
0#
#3095
1!
1#
b110 '
1$
1%
#3100
0!
0#
#3105
1!
1#
b11111111 *
0$
#3110
0!
0#
#3115
1!
1#
b11111111 )
#3120
0!
0#
#3125
1!
1#
b111 '
0%
b01100100 (
#3130
0!
0#
#3135
1!
1#
#3140
0!
0#
#3145
1!
1#
b011 '
1%
#3150
0!
0#
#3155
1!
1#
#3160
0!
0#
#3165
1!
1#
#3170
0!
0#
#3175
1!
1#
b000 '
1$
#3180
0!
0#
#3185
1!
1#
b01101111 *
0$
#3190
0!
0#
#3195
1!
1#
b01101111 )
#3200
0!
0#
#3205
1!
1#
b110 '
1$
#3210
0!
0#
#3215
1!
1#
b11111111 *
0$
#3220
0!
0#
#3225
1!
1#
b11111111 )
#3230
0!
0#
#3235
1!
1#
b100 '
1$
#3240
0!
0#
#3245
1!
1#
0$
#3250
0!
0#
#3255
1!
1#
#3260
0!
0#
#3265
1!
1#
b001 '
1$
0%
b01001100 (
#3270
0!
0#
#3275
1!
1#
0$
#3280
0!
0#
#3285
1!
1#
b010 '
1$
1%
#3290
0!
0#
#3295
1!
1#
0$
#3300
0!
0#
#3305
1!
1#
#3310
0!
0#
#3315
1!
1#
b001 '
1$
0%
b10011101 (
#3320
0!
0#
#3325
1!
1#
0$
#3330
0!
0#
#3335
1!
1#
1$
1%
#3340
0!
0#
#3345
1!
1#
b10011101 *
0$
#3350
0!
0#
#3355
1!
1#
b10011101 )
#3360
0!
0#
#3365
1!
1#
0%
b01111011 (
#3370
0!
0#
#3375
1!
1#
#3380
0!
0#
#3385
1!
1#
b011 '
1$
b11011101 (
#3390
0!
0#
#3395
1!
1#
0$
#3400
0!
0#
#3405
1!
1#
b110 '
b01010000 (
#3410
0!
0#
#3415
1!
1#
#3420
0!
0#
#3425
1!
1#
b100 '
1%
#3430
0!
0#
#3435
1!
1#
#3440
0!
0#
#3445
1!
1#
#3450
0!
0#
#3455
1!
1#
b101 '
1$
0%
b11010100 (
#3460
0!
0#
#3465
1!
1#
0$
#3470
0!
0#
#3475
1!
1#
b110 '
1$
1%
#3480
0!
0#
#3485
1!
1#
b11111111 *
0$
#3490
0!
0#
#3495
1!
1#
b11111111 )
#3500
0!
0#
#3505
1!
1#
b011 '
1$
0%
b01101010 (
#3510
0!
0#
#3515
1!
1#
0$
#3520
0!
0#
#3525
1!
1#
b100 '
1%
#3530
0!
0#
#3535
1!
1#
#3540
0!
0#
#3545
1!
1#
#3550
0!
0#
#3555
1!
1#
b111 '
1$
0%
b01000110 (
#3560
0!
0#
#3565
1!
1#
0$
#3570
0!
0#
#3575
1!
1#
b010 '
1$
1%
#3580
0!
0#
#3585
1!
1#
0$
#3590
0!
0#
#3595
1!
1#
#3600
0!
0#
#3605
1!
1#
b111 '
1$
0%
b00100010 (
#3610
0!
0#
#3615
1!
1#
0$
#3620
0!
0#
#3625
1!
1#
b010 '
1$
b00100110 (
#3630
0!
0#
#3635
1!
1#
0$
#3640
0!
0#
#3645
1!
1#
b110 '
1$
b01000000 (
#3650
0!
0#
#3655
1!
1#
0$
#3660
0!
0#
#3665
1!
1#
b011 '
1&
b000 '
b00000000000000000000000000000000 +
b00000000000000000000000000000001 +
b00000000000000000000000000000010 +
b00000000000000000000000000000011 +
b00000000000000000000000000000100 +
b00000000000000000000000000000101 +
b00000000000000000000000000000110 +
b00000000000000000000000000000111 +
b00000000000000000000000000001000 +
b00000000 *
b00000000 )
#3670
0!
0#
#3675
1!
1#
0&
1$
b11001010 (
#3680
0!
0#
#3685
1!
1#
0$
#3690
0!
0#
#3695
1!
1#
1%
#3700
0!
0#
#3705
1!
1#
#3710
0!
0#
#3715
1!
1#
#3720
0!
0#
#3725
1!
1#
1$
#3730
0!
0#
#3735
1!
1#
b11001010 *
0$
#3740
0!
0#
#3745
1!
1#
b11001010 )
#3750
0!
0#
#3755
1!
1#
b001 '
1&
0%
b000 '
b00000000000000000000000000000000 +
b00000000000000000000000000000001 +
b00000000000000000000000000000010 +
b00000000000000000000000000000011 +
b00000000000000000000000000000100 +
b00000000000000000000000000000101 +
b00000000000000000000000000000110 +
b00000000000000000000000000000111 +
b00000000000000000000000000001000 +
b00000000 *
b00000000 )
#3760
0!
0#
#3765
1!
1#
0&
1$
1%
#3770
0!
0#
#3775
1!
1#
b11111111 *
0$
#3780
0!
0#
#3785
1!
1#
b11111111 )
#3790
0!
0#
#3795
1!
1#
b110 '
1$
0%
b01010110 (
#3800
0!
0#
#3805
1!
1#
0$
#3810
0!
0#
#3815
1!
1#
1$
b10010111 (
#3820
0!
0#
#3825
1!
1#
0$
#3830
0!
0#
#3835
1!
1#
b100 '
1&
b000 '
b00000000000000000000000000000000 +
b00000000000000000000000000000001 +
b00000000000000000000000000000010 +
b00000000000000000000000000000011 +
b00000000000000000000000000000100 +
b00000000000000000000000000000101 +
b00000000000000000000000000000110 +
b00000000000000000000000000000111 +
b00000000000000000000000000001000 +
b00000000 *
b00000000 )
#3840
0!
0#
#3845
1!
1#
0&
b01010100 (
#3850
0!
0#
#3855
1!
1#
#3860
0!
0#
#3865
1!
1#
b100 '
b11110100 (
#3870
0!
0#
#3875
1!
1#
#3880
0!
0#
#3885
1!
1#
b011 '
1&
b000 '
b00000000000000000000000000000000 +
b00000000000000000000000000000001 +
b00000000000000000000000000000010 +
b00000000000000000000000000000011 +
b00000000000000000000000000000100 +
b00000000000000000000000000000101 +
b00000000000000000000000000000110 +
b00000000000000000000000000000111 +
b00000000000000000000000000001000 +
#3890
0!
0#
#3895
1!
1#
0&
1$
1%
#3900
0!
0#
#3905
1!
1#
b11111111 *
0$
#3910
0!
0#
#3915
1!
1#
b11111111 )
#3920
0!
0#
#3925
1!
1#
b100 '
1$
#3930
0!
0#
#3935
1!
1#
0$
#3940
0!
0#
#3945
1!
1#
#3950
0!
0#
#3955
1!
1#
b001 '
0%
b01111011 (
#3960
0!
0#
#3965
1!
1#
#3970
0!
0#
#3975
1!
1#
1$
b11100000 (
#3980
0!
0#
#3985
1!
1#
0$
#3990
0!
0#
#3995
1!
1#
b010 '
1&
b000 '
b00000000000000000000000000000000 +
b00000000000000000000000000000001 +
b00000000000000000000000000000010 +
b00000000000000000000000000000011 +
b00000000000000000000000000000100 +
b00000000000000000000000000000101 +
b00000000000000000000000000000110 +
b00000000000000000000000000000111 +
b00000000000000000000000000001000 +
b00000000 *
b00000000 )
#4000
0!
0#
#4005
1!
1#
0&
1$
1%
#4010
0!
0#
#4015
1!
1#
b11111111 *
0$
#4020
0!
0#
#4025
1!
1#
b11111111 )
#4030
0!
0#
